module gobalance

go 1.18

require (
	github.com/sirupsen/logrus v1.8.1
	github.com/stretchr/testify v1.2.2
	github.com/urfave/cli/v2 v2.3.0
	golang.org/x/crypto v0.0.0-20220214200702-86341886e292
	gopkg.in/yaml.v3 v3.0.1
	maze.io/x/crypto v0.0.0-20190131090603-9b94c9afe066
)

require (
	github.com/cpuguy83/go-md2man/v2 v2.0.0-20190314233015-f79a8a8ca69d // indirect
	github.com/davecgh/go-spew v1.1.1 // indirect
	github.com/pmezard/go-difflib v1.0.0 // indirect
	github.com/russross/blackfriday/v2 v2.0.1 // indirect
	github.com/shurcooL/sanitized_anchor_name v1.0.0 // indirect
	golang.org/x/sys v0.0.0-20210615035016-665e8c7367d1 // indirect
)
